^C:\USERS\KAZIM\DESKTOP\STUDY DATA\DATA STRUCTURES\POSTFIXTOEXPRESSIONTREE\POSTFIXTOEXPRESSIONTREE\DEBUG\SOURCE.OBJ
C:\USERS\KAZIM\DESKTOP\STUDY DATA\DATA STRUCTURES\POSTFIXTOEXPRESSIONTREE\DEBUG\POSTFIXTOEXPRESSIONTREE.EXE
C:\USERS\KAZIM\DESKTOP\STUDY DATA\DATA STRUCTURES\POSTFIXTOEXPRESSIONTREE\DEBUG\POSTFIXTOEXPRESSIONTREE.ILK
C:\USERS\KAZIM\DESKTOP\STUDY DATA\DATA STRUCTURES\POSTFIXTOEXPRESSIONTREE\DEBUG\POSTFIXTOEXPRESSIONTREE.PDB
